{ "frames": {
   "T:atlas L: F:0": {
    "frame": { "x": 0, "y": 0, "w": 256, "h": 256 },
    "rotated": false,
    "trimmed": false,
    "spriteSourceSize": { "x": 0, "y": 0, "w": 256, "h": 256 },
    "sourceSize": { "w": 256, "h": 256 },
    "duration": 100
   }
 },
 "meta": {
  "app": "http://www.aseprite.org/",
  "version": "1.2.27-x64",
  "image": "atlas.png",
  "format": "RGBA8888",
  "size": { "w": 256, "h": 256 },
  "scale": "1",
  "frameTags": [
  ],
  "layers": [
   { "name": "Layer 1", "opacity": 255, "blendMode": "normal" },
   { "name": "Grid", "opacity": 255, "blendMode": "normal" }
  ],
  "slices": [
   { "name": "3x3", "color": "#0000ffff", "keys": [{ "frame": 0, "bounds": {"x": 0, "y": 0, "w": 64, "h": 64 } }] },
   { "name": "2x2", "color": "#0000ffff", "keys": [{ "frame": 0, "bounds": {"x": 64, "y": 0, "w": 64, "h": 64 } }] },
   { "name": "1x1", "color": "#0000ffff", "keys": [{ "frame": 0, "bounds": {"x": 128, "y": 0, "w": 16, "h": 16 } }] },
   { "name": "chasm", "color": "#0000ffff", "keys": [{ "frame": 0, "bounds": {"x": 144, "y": 0, "w": 16, "h": 16 } }] },
   { "name": "obj1", "color": "#0000ffff", "keys": [{ "frame": 0, "bounds": {"x": 128, "y": 16, "w": 16, "h": 16 } }] },
   { "name": "obj2", "color": "#0000ffff", "keys": [{ "frame": 0, "bounds": {"x": 144, "y": 16, "w": 16, "h": 16 } }] },
   { "name": "obj-large", "color": "#0000ffff", "keys": [{ "frame": 0, "bounds": {"x": 128, "y": 32, "w": 32, "h": 32 } }] },
   { "name": "numbers", "color": "#0000ffff", "keys": [{ "frame": 0, "bounds": {"x": 160, "y": 0, "w": 64, "h": 64 } }] }
  ]
 }
}
